{
  "type": "Feature",
  "properties": {},
  "geometry": {
    "type": "FeatureCollection",
    "features": [
      {
        "type": "Feature",
        "properties": {},
        "geometry": {
          "type": "MultiPolygon",
          "coordinates": [
            [
              [
                [
                  -73.9635,
                  40.797
                ],
                [
                  -73.9517,
                  40.797
                ],
                [
                  -73.9517,
                  40.8088
                ],
                [
                  -73.9635,
                  40.8088
                ],
                [
                  -73.9635,
                  40.797
                ]
              ]
            ]
          ]
        }
      },
      {
        "type": "Feature",
        "properties": {},
        "geometry": {
          "type": "MultiPolygon",
          "coordinates": [
            [
              [
                [
                  -73.9753,
                  40.7852
                ],
                [
                  -73.9635,
                  40.7852
                ],
                [
                  -73.9635,
                  40.797
                ],
                [
                  -73.9753,
                  40.797
                ],
                [
                  -73.9753,
                  40.7852
                ]
              ]
            ],
            [
              [
                [
                  -73.9635,
                  40.7852
                ],
                [
                  -73.9517,
                  40.7852
                ],
                [
                  -73.9517,
                  40.797
                ],
                [
                  -73.9635,
                  40.797
                ],
                [
                  -73.9635,
                  40.7852
                ]
              ]
            ],
            [
              [
                [
                  -73.9517,
                  40.7852
                ],
                [
                  -73.9398,
                  40.7852
                ],
                [
                  -73.9398,
                  40.797
                ],
                [
                  -73.9517,
                  40.797
                ],
                [
                  -73.9517,
                  40.7852
                ]
              ]
            ],
            [
              [
                [
                  -73.9517,
                  40.797
                ],
                [
                  -73.9398,
                  40.797
                ],
                [
                  -73.9398,
                  40.8088
                ],
                [
                  -73.9517,
                  40.8088
                ],
                [
                  -73.9517,
                  40.797
                ]
              ]
            ]
          ]
        }
      },
      {
        "type": "Feature",
        "properties": {},
        "geometry": {
          "type": "MultiPolygon",
          "coordinates": [
            [
              [
                [
                  -73.9872,
                  40.7615
                ],
                [
                  -73.9753,
                  40.7615
                ],
                [
                  -73.9753,
                  40.7733
                ],
                [
                  -73.9872,
                  40.7733
                ],
                [
                  -73.9872,
                  40.7615
                ]
              ]
            ],
            [
              [
                [
                  -73.9753,
                  40.7615
                ],
                [
                  -73.9635,
                  40.7615
                ],
                [
                  -73.9635,
                  40.7733
                ],
                [
                  -73.9753,
                  40.7733
                ],
                [
                  -73.9753,
                  40.7615
                ]
              ]
            ],
            [
              [
                [
                  -73.9872,
                  40.7733
                ],
                [
                  -73.9753,
                  40.7733
                ],
                [
                  -73.9753,
                  40.7852
                ],
                [
                  -73.9872,
                  40.7852
                ],
                [
                  -73.9872,
                  40.7733
                ]
              ]
            ],
            [
              [
                [
                  -73.9753,
                  40.7733
                ],
                [
                  -73.9635,
                  40.7733
                ],
                [
                  -73.9635,
                  40.7852
                ],
                [
                  -73.9753,
                  40.7852
                ],
                [
                  -73.9753,
                  40.7733
                ]
              ]
            ],
            [
              [
                [
                  -73.9635,
                  40.7733
                ],
                [
                  -73.9517,
                  40.7733
                ],
                [
                  -73.9517,
                  40.7852
                ],
                [
                  -73.9635,
                  40.7852
                ],
                [
                  -73.9635,
                  40.7733
                ]
              ]
            ]
          ]
        }
      }
    ]
  }
}