{
  "type": "Feature",
  "properties": {
    "name": "mp1",
    "color": "red"
  },
  "geometry": {
    "type": "Polygon",
    "coordinates": [
      [
        [
          -73.973070,
          40.764793
        ],
        [
          -73.958568,
          40.758749
        ],
        [
          -73.942496,
          40.775477
        ],
        [
          -73.943952,
          40.782925
        ],
        [
          -73.955837,
          40.787962
        ],
        [
          -73.973070,
          40.764793
        ]
      ]
    ]
  }
}