{
  "type": "Feature",
  "properties": {
    "name": "mp1",
    "color": "red"
  },
  "geometry": {
    "type": "MultiPolygon",
    "coordinates": [
      [
        [
          [
            -73.9752,
            40.7889
          ],
          [
            -73.9662,
            40.7889
          ],
          [
            -73.9662,
            40.7979
          ],
          [
            -73.9752,
            40.7979
          ],
          [
            -73.9752,
            40.7889
          ]
        ]
      ],
      [
        [
          [
            -73.9662,
            40.7889
          ],
          [
            -73.9572,
            40.7889
          ],
          [
            -73.9572,
            40.7979
          ],
          [
            -73.9662,
            40.7979
          ],
          [
            -73.9662,
            40.7889
          ]
        ]
      ],
      [
        [
          [
            -73.9842,
            40.7979
          ],
          [
            -73.9752,
            40.7979
          ],
          [
            -73.9752,
            40.8069
          ],
          [
            -73.9842,
            40.8069
          ],
          [
            -73.9842,
            40.7979
          ]
        ]
      ],
      [
        [
          [
            -73.9752,
            40.7979
          ],
          [
            -73.9662,
            40.7979
          ],
          [
            -73.9662,
            40.8069
          ],
          [
            -73.9752,
            40.8069
          ],
          [
            -73.9752,
            40.7979
          ]
        ]
      ],
      [
        [
          [
            -73.9662,
            40.7979
          ],
          [
            -73.9572,
            40.7979
          ],
          [
            -73.9572,
            40.8069
          ],
          [
            -73.9662,
            40.8069
          ],
          [
            -73.9662,
            40.7979
          ]
        ]
      ],
      [
        [
          [
            -73.9572,
            40.7979
          ],
          [
            -73.9482,
            40.7979
          ],
          [
            -73.9482,
            40.8069
          ],
          [
            -73.9572,
            40.8069
          ],
          [
            -73.9572,
            40.7979
          ]
        ]
      ],
      [
        [
          [
            -73.9482,
            40.7979
          ],
          [
            -73.9392,
            40.7979
          ],
          [
            -73.9392,
            40.8069
          ],
          [
            -73.9482,
            40.8069
          ],
          [
            -73.9482,
            40.7979
          ]
        ]
      ],
      [
        [
          [
            -73.9392,
            40.7979
          ],
          [
            -73.9302,
            40.7979
          ],
          [
            -73.9302,
            40.8069
          ],
          [
            -73.9392,
            40.8069
          ],
          [
            -73.9392,
            40.7979
          ]
        ]
      ],
      [
        [
          [
            -73.9752,
            40.8069
          ],
          [
            -73.9662,
            40.8069
          ],
          [
            -73.9662,
            40.8159
          ],
          [
            -73.9752,
            40.8159
          ],
          [
            -73.9752,
            40.8069
          ]
        ]
      ],
      [
        [
          [
            -73.9662,
            40.8069
          ],
          [
            -73.9572,
            40.8069
          ],
          [
            -73.9572,
            40.8159
          ],
          [
            -73.9662,
            40.8159
          ],
          [
            -73.9662,
            40.8069
          ]
        ]
      ],
      [
        [
          [
            -73.9572,
            40.8069
          ],
          [
            -73.9482,
            40.8069
          ],
          [
            -73.9482,
            40.8159
          ],
          [
            -73.9572,
            40.8159
          ],
          [
            -73.9572,
            40.8069
          ]
        ]
      ],
      [
        [
          [
            -73.9482,
            40.8069
          ],
          [
            -73.9392,
            40.8069
          ],
          [
            -73.9392,
            40.8159
          ],
          [
            -73.9482,
            40.8159
          ],
          [
            -73.9482,
            40.8069
          ]
        ]
      ],
      [
        [
          [
            -73.9392,
            40.8069
          ],
          [
            -73.9302,
            40.8069
          ],
          [
            -73.9302,
            40.8159
          ],
          [
            -73.9392,
            40.8159
          ],
          [
            -73.9392,
            40.8069
          ]
        ]
      ],
      [
        [
          [
            -73.9662,
            40.8159
          ],
          [
            -73.9572,
            40.8159
          ],
          [
            -73.9572,
            40.8249
          ],
          [
            -73.9662,
            40.8249
          ],
          [
            -73.9662,
            40.8159
          ]
        ]
      ],
      [
        [
          [
            -73.9572,
            40.8159
          ],
          [
            -73.9482,
            40.8159
          ],
          [
            -73.9482,
            40.8249
          ],
          [
            -73.9572,
            40.8249
          ],
          [
            -73.9572,
            40.8159
          ]
        ]
      ],
      [
        [
          [
            -73.9482,
            40.8159
          ],
          [
            -73.9392,
            40.8159
          ],
          [
            -73.9392,
            40.8249
          ],
          [
            -73.9482,
            40.8249
          ],
          [
            -73.9482,
            40.8159
          ]
        ]
      ],
      [
        [
          [
            -73.9392,
            40.8159
          ],
          [
            -73.9302,
            40.8159
          ],
          [
            -73.9302,
            40.8249
          ],
          [
            -73.9392,
            40.8249
          ],
          [
            -73.9392,
            40.8159
          ]
        ]
      ],
      [
        [
          [
            -73.9662,
            40.8249
          ],
          [
            -73.9572,
            40.8249
          ],
          [
            -73.9572,
            40.8339
          ],
          [
            -73.9662,
            40.8339
          ],
          [
            -73.9662,
            40.8249
          ]
        ]
      ],
      [
        [
          [
            -73.9572,
            40.8249
          ],
          [
            -73.9482,
            40.8249
          ],
          [
            -73.9482,
            40.8339
          ],
          [
            -73.9572,
            40.8339
          ],
          [
            -73.9572,
            40.8249
          ]
        ]
      ],
      [
        [
          [
            -73.9482,
            40.8249
          ],
          [
            -73.9392,
            40.8249
          ],
          [
            -73.9392,
            40.8339
          ],
          [
            -73.9482,
            40.8339
          ],
          [
            -73.9482,
            40.8249
          ]
        ]
      ],
      [
        [
          [
            -73.9392,
            40.8249
          ],
          [
            -73.9302,
            40.8249
          ],
          [
            -73.9302,
            40.8339
          ],
          [
            -73.9392,
            40.8339
          ],
          [
            -73.9392,
            40.8249
          ]
        ]
      ],
      [
        [
          [
            -73.9572,
            40.8339
          ],
          [
            -73.9482,
            40.8339
          ],
          [
            -73.9482,
            40.8429
          ],
          [
            -73.9572,
            40.8429
          ],
          [
            -73.9572,
            40.8339
          ]
        ]
      ],
      [
        [
          [
            -73.9482,
            40.8339
          ],
          [
            -73.9392,
            40.8339
          ],
          [
            -73.9392,
            40.8429
          ],
          [
            -73.9482,
            40.8429
          ],
          [
            -73.9482,
            40.8339
          ]
        ]
      ],
      [
        [
          [
            -73.9392,
            40.8339
          ],
          [
            -73.9302,
            40.8339
          ],
          [
            -73.9302,
            40.8429
          ],
          [
            -73.9392,
            40.8429
          ],
          [
            -73.9392,
            40.8339
          ]
        ]
      ],
      [
        [
          [
            -73.9482,
            40.8429
          ],
          [
            -73.9392,
            40.8429
          ],
          [
            -73.9392,
            40.8519
          ],
          [
            -73.9482,
            40.8519
          ],
          [
            -73.9482,
            40.8429
          ]
        ]
      ],
      [
        [
          [
            -73.9392,
            40.8429
          ],
          [
            -73.9302,
            40.8429
          ],
          [
            -73.9302,
            40.8519
          ],
          [
            -73.9392,
            40.8519
          ],
          [
            -73.9392,
            40.8429
          ]
        ]
      ],
      [
        [
          [
            -73.9302,
            40.8429
          ],
          [
            -73.9212,
            40.8429
          ],
          [
            -73.9212,
            40.8519
          ],
          [
            -73.9302,
            40.8519
          ],
          [
            -73.9302,
            40.8429
          ]
        ]
      ],
      [
        [
          [
            -73.9482,
            40.8519
          ],
          [
            -73.9392,
            40.8519
          ],
          [
            -73.9392,
            40.8609
          ],
          [
            -73.9482,
            40.8609
          ],
          [
            -73.9482,
            40.8519
          ]
        ]
      ],
      [
        [
          [
            -73.9392,
            40.8519
          ],
          [
            -73.9302,
            40.8519
          ],
          [
            -73.9302,
            40.8609
          ],
          [
            -73.9392,
            40.8609
          ],
          [
            -73.9392,
            40.8519
          ]
        ]
      ],
      [
        [
          [
            -73.9302,
            40.8519
          ],
          [
            -73.9212,
            40.8519
          ],
          [
            -73.9212,
            40.8609
          ],
          [
            -73.9302,
            40.8609
          ],
          [
            -73.9302,
            40.8519
          ]
        ]
      ],
      [
        [
          [
            -73.9212,
            40.8519
          ],
          [
            -73.9122,
            40.8519
          ],
          [
            -73.9122,
            40.8609
          ],
          [
            -73.9212,
            40.8609
          ],
          [
            -73.9212,
            40.8519
          ]
        ]
      ],
      [
        [
          [
            -73.9392,
            40.8609
          ],
          [
            -73.9302,
            40.8609
          ],
          [
            -73.9302,
            40.8699
          ],
          [
            -73.9392,
            40.8699
          ],
          [
            -73.9392,
            40.8609
          ]
        ]
      ],
      [
        [
          [
            -73.9302,
            40.8609
          ],
          [
            -73.9212,
            40.8609
          ],
          [
            -73.9212,
            40.8699
          ],
          [
            -73.9302,
            40.8699
          ],
          [
            -73.9302,
            40.8609
          ]
        ]
      ],
      [
        [
          [
            -73.9212,
            40.8609
          ],
          [
            -73.9122,
            40.8609
          ],
          [
            -73.9122,
            40.8699
          ],
          [
            -73.9212,
            40.8699
          ],
          [
            -73.9212,
            40.8609
          ]
        ]
      ],
      [
        [
          [
            -73.9752,
            40.7799
          ],
          [
            -73.9662,
            40.7799
          ],
          [
            -73.9662,
            40.7889
          ],
          [
            -73.9752,
            40.7889
          ],
          [
            -73.9752,
            40.7799
          ]
        ]
      ],
      [
        [
          [
            -73.9842,
            40.7889
          ],
          [
            -73.9752,
            40.7889
          ],
          [
            -73.9752,
            40.7979
          ],
          [
            -73.9842,
            40.7979
          ],
          [
            -73.9842,
            40.7889
          ]
        ]
      ],
      [
        [
          [
            -73.9752,
            40.7709
          ],
          [
            -73.9662,
            40.7709
          ],
          [
            -73.9662,
            40.7799
          ],
          [
            -73.9752,
            40.7799
          ],
          [
            -73.9752,
            40.7709
          ]
        ]
      ],
      [
        [
          [
            -73.9842,
            40.7709
          ],
          [
            -73.9752,
            40.7709
          ],
          [
            -73.9752,
            40.7799
          ],
          [
            -73.9842,
            40.7799
          ],
          [
            -73.9842,
            40.7709
          ]
        ]
      ],
      [
        [
          [
            -73.9482,
            40.7889
          ],
          [
            -73.9392,
            40.7889
          ],
          [
            -73.9392,
            40.7979
          ],
          [
            -73.9482,
            40.7979
          ],
          [
            -73.9482,
            40.7889
          ]
        ]
      ],
      [
        [
          [
            -73.9572,
            40.7889
          ],
          [
            -73.9482,
            40.7889
          ],
          [
            -73.9482,
            40.7979
          ],
          [
            -73.9572,
            40.7979
          ],
          [
            -73.9572,
            40.7889
          ]
        ]
      ],
      [
        [
          [
            -73.9842,
            40.7799
          ],
          [
            -73.9752,
            40.7799
          ],
          [
            -73.9752,
            40.7889
          ],
          [
            -73.9842,
            40.7889
          ],
          [
            -73.9842,
            40.7799
          ]
        ]
      ],
      [
        [
          [
            -73.9572,
            40.7799
          ],
          [
            -73.9482,
            40.7799
          ],
          [
            -73.9482,
            40.7889
          ],
          [
            -73.9572,
            40.7889
          ],
          [
            -73.9572,
            40.7799
          ]
        ]
      ],
      [
        [
          [
            -73.9662,
            40.7799
          ],
          [
            -73.9572,
            40.7799
          ],
          [
            -73.9572,
            40.7889
          ],
          [
            -73.9662,
            40.7889
          ],
          [
            -73.9662,
            40.7799
          ]
        ]
      ],
      [
        [
          [
            -73.9572,
            40.7709
          ],
          [
            -73.9482,
            40.7709
          ],
          [
            -73.9482,
            40.7799
          ],
          [
            -73.9572,
            40.7799
          ],
          [
            -73.9572,
            40.7709
          ]
        ]
      ],
      [
        [
          [
            -73.9662,
            40.7709
          ],
          [
            -73.9572,
            40.7709
          ],
          [
            -73.9572,
            40.7799
          ],
          [
            -73.9662,
            40.7799
          ],
          [
            -73.9662,
            40.7709
          ]
        ]
      ]
    ]
  }
}